<svg width="200" height="200" viewBox="0 0 200 200" fill="none" xmlns="http://www.w3.org/2000/svg">
<path d="M171.934 32.4414C171.934 25.5469 164.16 20.4687 148.184 16.9727C135.254 14.1211 118.145 12.5586 100 12.5586C81.8555 12.5586 64.7461 14.1211 51.8164 16.9531C35.8398 20.4688 28.0664 25.5273 28.0664 32.4219C28.0664 32.8125 28.0859 33.1836 28.1445 33.5547C28.1055 33.8281 28.0664 34.1211 28.0664 34.3945V168.203C28.0664 168.945 28.2227 169.668 28.5156 170.313C30.3711 175.82 38.0469 180 51.8164 183.008C64.7461 185.84 81.875 187.402 100 187.402C118.125 187.402 135.254 185.84 148.184 183.008C161.953 179.98 169.609 175.82 171.484 170.313C171.777 169.668 171.934 168.965 171.934 168.203V34.4141C171.934 34.1211 171.895 33.8477 171.855 33.5742C171.914 33.2031 171.934 32.832 171.934 32.4414ZM57.4023 25.0977C69.1406 22.8516 84.2773 21.6016 100 21.6016C115.723 21.6016 130.859 22.8516 142.598 25.0977C153.437 27.168 158.437 31.1133 160.254 32.4414C158.437 33.7695 153.437 36.1328 142.598 38.2227C130.859 40.4687 115.723 41.7188 100 41.7188C84.2773 41.7188 69.1406 40.4687 57.4023 38.2227C46.5625 36.1523 41.5625 33.7695 39.7461 32.4414C41.5625 31.1133 46.5625 27.168 57.4023 25.0977ZM142.598 174.707C130.859 176.973 115.723 178.203 100 178.203C84.2773 178.203 69.1406 176.953 57.4023 174.707C44.9219 172.324 38.1836 169.531 37.1289 168.398V42.3438C40.5664 43.7695 45.7422 45.0195 50.7813 46.1328C63.7109 48.9648 81.8555 50.5273 100 50.5273C118.145 50.5273 135.254 48.9648 148.184 46.1328C153.223 45.0195 159.238 43.7695 162.656 42.3438V168.398C161.602 169.531 155.078 172.324 142.598 174.707Z" fill="#F4E1E1"/>
<path d="M137.539 148.477C132.168 153.438 123.34 153.711 117.559 149.238C117.148 148.926 116.738 148.574 116.367 148.262C106.855 140.176 91.9531 140.371 82.8125 148.789C80.1367 151.25 76.5234 152.656 72.6562 152.734C68.7695 152.793 65.1171 151.543 62.3242 149.16C60.4492 147.559 57.4414 147.617 55.6445 149.277C53.8281 150.937 53.9062 153.594 55.7812 155.195C60.2734 159.023 66.1328 161.094 72.3437 161.094H72.832C79.2187 160.977 85.1757 158.672 89.6093 154.59C94.9804 149.629 103.809 149.355 109.59 153.828C109.883 154.121 110.254 154.414 110.586 154.785C115.879 158.672 121.094 160.977 127.07 160.977C133.359 160.977 139.648 158.613 144.336 154.277C146.152 152.617 146.074 149.961 144.199 148.359C142.324 146.758 139.336 146.797 137.539 148.477ZM96.289 75C95.7031 73.9063 92.7148 68.4961 86.6015 60.0195C86.4843 59.8633 86.3671 59.707 86.2304 59.5703L86.0546 59.3945C85.996 59.3359 85.9375 59.2578 85.8593 59.1992C85.4687 58.8281 85.0195 58.5352 84.5507 58.3008C84.4531 58.2422 84.3359 58.2031 84.2382 58.1641C84.1796 58.1445 84.1406 58.125 84.082 58.1055C83.9453 58.0469 83.8085 58.0078 83.6718 57.9687C83.6523 57.9687 83.6132 57.9492 83.5937 57.9492C83.457 57.9102 83.3203 57.8906 83.2031 57.8711C83.164 57.8711 83.1445 57.8516 83.1054 57.8516C82.9882 57.832 82.871 57.8125 82.7539 57.8125C82.6953 57.8125 82.6562 57.793 82.5976 57.793H82.0703C81.9921 57.793 81.914 57.8125 81.8359 57.8125C81.7382 57.8125 81.6406 57.832 81.5429 57.832C81.4843 57.832 81.4257 57.8516 81.3671 57.8711C81.25 57.8906 81.1523 57.9102 81.0351 57.9297C80.9765 57.9492 80.9179 57.9687 80.8593 57.9687C80.7421 57.9883 80.6445 58.0273 80.5468 58.0664L80.2539 58.1836C80.1953 58.2031 80.1367 58.2227 80.0585 58.2617C79.5703 58.4766 79.121 58.7695 78.7304 59.1211C78.6718 59.1602 78.6328 59.2187 78.5742 59.2578C78.496 59.3359 78.4179 59.3945 78.3593 59.4727C78.2226 59.6094 78.1054 59.7656 77.9882 59.9219C71.5624 68.418 68.7304 73.9453 68.1249 75.1758C66.6992 77.6172 65.9375 80.4102 65.9375 83.2617C65.9375 92.168 73.2617 99.4141 82.246 99.4141C91.2304 99.4141 98.5546 92.168 98.5546 83.2617C98.5742 80.332 97.7929 77.4805 96.289 75ZM82.2656 92.3828C77.1093 92.3828 72.9296 88.2031 72.9296 83.0469C72.9296 81.3867 73.3789 79.7852 74.1992 78.3594C74.5507 77.6367 76.2695 74.2188 80.1953 68.9648C80.2343 68.9063 80.2734 68.8477 80.332 68.8086L80.371 68.7695C80.3906 68.7305 80.4296 68.7109 80.4687 68.6719L80.5664 68.5742C80.5859 68.5742 80.5859 68.5547 80.6054 68.5547C80.664 68.5156 80.7226 68.457 80.7812 68.418C80.8007 68.418 80.8007 68.3984 80.8203 68.3984L80.996 68.2813C81.0156 68.2617 81.0546 68.2422 81.0742 68.2422C81.1132 68.2227 81.1718 68.2031 81.2109 68.1836C81.2499 68.1641 81.3085 68.1445 81.3476 68.125C81.3867 68.1055 81.4062 68.1055 81.4453 68.0859C81.5039 68.0664 81.5429 68.0469 81.6015 68.0469C81.621 68.0469 81.6601 68.0273 81.6796 68.0273C81.7382 68.0078 81.7968 68.0078 81.8554 67.9883C81.875 67.9883 81.914 67.9883 81.9335 67.9688C81.9921 67.9688 82.0507 67.9492 82.0898 67.9492H82.4218C82.4609 67.9492 82.5 67.9492 82.539 67.9688C82.5781 67.9688 82.6171 67.9688 82.6757 67.9883C82.7148 67.9883 82.7539 68.0078 82.7929 68.0078C82.832 68.0078 82.8906 68.0273 82.9296 68.0469C82.9687 68.0469 83.0078 68.0664 83.0273 68.0859C83.0664 68.1055 83.1249 68.1055 83.164 68.125C83.2031 68.1445 83.2421 68.1641 83.2812 68.1641C83.3203 68.1836 83.3593 68.2031 83.3984 68.2031C83.457 68.2227 83.496 68.2617 83.5351 68.2813C83.5546 68.3008 83.5937 68.3008 83.6132 68.3203L83.789 68.4375L83.8085 68.457C83.8671 68.4961 83.9257 68.5547 83.9843 68.5938C84.0039 68.5938 84.0039 68.6133 84.0234 68.6133L84.121 68.7109C84.1601 68.75 84.1796 68.7695 84.1992 68.8086C84.2187 68.8281 84.2187 68.8477 84.2382 68.8477C84.2773 68.9063 84.3359 68.9453 84.375 69.0039C88.1054 74.2383 89.9218 77.5781 90.2929 78.2617C91.1523 79.707 91.6015 81.3477 91.6015 83.0469C91.6015 88.2031 87.4218 92.3828 82.2656 92.3828ZM143.73 104.258C142.969 102.832 139.219 95.9766 131.562 85.1953C131.484 85.0781 131.387 84.9805 131.309 84.8633C131.289 84.8242 131.269 84.8047 131.23 84.7656C131.172 84.707 131.113 84.6484 131.055 84.5703C130.996 84.4922 130.918 84.4336 130.859 84.375L130.801 84.3164L130.449 84.0234C130.43 84.0039 130.41 84.0039 130.391 83.9844C130.273 83.8867 130.137 83.8086 130.019 83.7305C129.961 83.6914 129.922 83.6719 129.863 83.6523C129.766 83.5937 129.668 83.5352 129.57 83.4961C129.492 83.457 129.414 83.4375 129.336 83.3984C129.258 83.3594 129.18 83.3398 129.102 83.3008C129.004 83.2617 128.926 83.2422 128.828 83.2031C128.75 83.1836 128.691 83.1641 128.613 83.1445C128.516 83.125 128.418 83.1055 128.34 83.0859C128.262 83.0664 128.184 83.0469 128.125 83.0469C128.047 83.0273 127.949 83.0273 127.871 83.0078C127.793 83.0078 127.695 82.9883 127.617 82.9883H127.109C127.051 82.9883 126.992 82.9883 126.934 83.0078C126.816 83.0078 126.719 83.0273 126.602 83.0469C126.543 83.0469 126.504 83.0664 126.445 83.0664L126.094 83.125C126.035 83.1445 125.996 83.1445 125.937 83.1641C125.82 83.2031 125.723 83.2227 125.605 83.2617C125.547 83.2812 125.469 83.3203 125.41 83.3398C125.312 83.3789 125.234 83.418 125.137 83.457C125.039 83.4961 124.961 83.5547 124.863 83.5938C124.805 83.6328 124.746 83.6523 124.687 83.6914C124.551 83.7695 124.434 83.8477 124.316 83.9258C124.297 83.9453 124.277 83.9453 124.258 83.9648C124.141 84.043 124.023 84.1406 123.906 84.2383C123.887 84.2578 123.867 84.2773 123.828 84.2969C123.75 84.3555 123.691 84.4336 123.633 84.4922C123.574 84.5508 123.496 84.6094 123.437 84.668C123.418 84.6875 123.398 84.7266 123.359 84.7461C123.262 84.8633 123.164 84.9609 123.086 85.0781C115 95.918 111.465 102.91 110.742 104.414C109.043 107.344 108.144 110.664 108.144 114.063C108.144 124.648 116.758 133.262 127.344 133.262C137.93 133.262 146.543 124.648 146.543 114.063C146.445 110.625 145.508 107.207 143.73 104.258ZM127.246 125.625C120.41 125.625 114.844 120.059 114.844 113.223C114.844 111.035 115.43 108.867 116.523 106.992C116.992 106.016 119.277 101.504 124.492 94.4922C124.551 94.4141 124.609 94.3555 124.668 94.2773C124.687 94.2578 124.707 94.2383 124.707 94.2188L124.824 94.1016L124.961 93.9648C124.98 93.9453 125 93.9453 125 93.9258L125.234 93.75C125.254 93.75 125.254 93.7305 125.273 93.7305C125.352 93.6719 125.43 93.6328 125.508 93.5742L125.625 93.5156C125.684 93.4766 125.742 93.457 125.801 93.418C125.859 93.3984 125.918 93.3789 125.977 93.3398C126.016 93.3203 126.055 93.3008 126.094 93.3008C126.172 93.2813 126.23 93.2617 126.309 93.2422C126.348 93.2422 126.367 93.2227 126.406 93.2227C126.484 93.2031 126.562 93.1836 126.641 93.1836C126.68 93.1836 126.699 93.1641 126.738 93.1641C126.816 93.1445 126.875 93.1445 126.953 93.1445H127.402C127.461 93.1445 127.519 93.1641 127.559 93.1641C127.617 93.1641 127.676 93.1836 127.734 93.1836C127.773 93.1836 127.832 93.2031 127.871 93.2031C127.93 93.2227 127.988 93.2227 128.047 93.2422C128.086 93.2617 128.144 93.2617 128.184 93.2813L128.359 93.3398C128.418 93.3594 128.457 93.3789 128.516 93.3984C128.574 93.418 128.613 93.4375 128.672 93.457C128.73 93.4961 128.809 93.5156 128.867 93.5547C128.906 93.5742 128.926 93.5937 128.965 93.6133C129.043 93.6719 129.121 93.7109 129.219 93.7695C129.238 93.7695 129.238 93.7891 129.258 93.7891C129.336 93.8477 129.414 93.9063 129.492 93.9844L129.531 94.0234L129.668 94.1602L129.785 94.2773C129.805 94.2969 129.824 94.3164 129.824 94.3359C129.883 94.4141 129.941 94.4727 130 94.5508C134.961 101.504 137.383 105.937 137.871 106.855C139.023 108.77 139.629 110.977 139.629 113.203C139.648 120.059 134.082 125.625 127.246 125.625Z" fill="#F4E1E1"/>
</svg>
